






          /\
         /  \
        |    |
      --:'''':--
        : '_':
     ___/:"":_
  _.'     ::: '.____      ' '
 :    /           (=>>=====* .
 '._.'\      _/'-'-'      '  .
   ""_:====/
    //     '.
     :       :
     /    :   \
   .'      .   :
   :      : :  :
   '--;.__:-:__:
       '-'   '-'