





     ----.         ^
     "   _}        #
     "@   >        #
     |\   7        #
    _/ `-- _       #
  ~    >o<  \___(--o--)
 /  |  \  /  _____/8'
 |  |       /      "
 |  /      |
  \ |      |
   /        \
   |        |
   |   ||   |
   |   ||   |
   |   ||   |
   |   ||   |
   |   ||   \
  [____) [____)